<svg xmlns="http://www.w3.org/2000/svg" width="1em" height="1em" viewBox="0 0 12 12">
  <path d="M0,0h12v12H0V0z" fill="none"/>
  <path d="M6,1C3.2,1,1,3.2,1,6s2.2,5,5,5s5-2.2,5-5S8.8,1,6,1z M1.8,5.8h1.2c0-0.6,0.2-1.2,0.5-1.6c0.9-1.4,2.8-1.9,4.2-0.9L7.1,3.8
	C6.8,3.6,6.4,3.5,6,3.5c-1.3,0-2.3,1-2.3,2.3h1.2L3.3,7.4L1.8,5.8z M9.1,5.8c0,0.6-0.2,1.2-0.5,1.7C7.7,8.9,5.8,9.3,4.4,8.4l0.6-0.6
	C5.3,8.1,5.6,8.1,6,8.1c1.3,0,2.3-1,2.3-2.3H7.2l1.5-1.5l1.5,1.5H9.1z"/>
</svg>
